{
  "shortCustomerName": "test",
  "expectedTotalShipmentValue": "100000",
  "customer": "test164",
  "serviceType": "Truckload",
  "serviceTypeShort": "TL",
  "shipmentType": "Manual Spot Quote",
  "service": "Full",
  "equipment": "Van",
  "length": "53 feet",
  "equipmentLengthShort": "53",
  "shipmentTypeShort": "Spot Quote",
  "newEquipmentType": "Cargo Van",
  "newEquipmentType2": "Bulk",
  "newEquipmentLength": "48",
  "origin": ", Fredonia, AZ 86022",
  "originRouteDetails": "Fredonia, AZ, 86022",
  "originCity": "Fredonia, AZ",
  "originZip": "86022",
  "destination": ", Atlanta, GA 30302",
  "destinationRouteDetails": "Atlanta, GA, 30302",
  "destinationCity": "Atlanta, GA",
  "destinationZip": "30302",
  "commodityDescription": "TestSmoke",
  "pieceCount": "12",
  "weight": "10 lbs",
  "palletCount": "2",
  "unitType": "Pallets(40x48)",
  "actualCost": "$50,000.00",
  "revenue": "$80,000.00",
  "maxBuy": "$50,000.00",
  "targetCost": "$60,000.00",
  "margin": "$30,000.00",
  "priceToBeat": "$50,000.00",
  "marginPercentage": "37.50",
  "additionalShippingItem": {
    "commodityDescription": "TestSmoke2",
    "pieceCount": "12",
    "weight": "10",
    "palletCount": "2"
  },
  "originContainerData": {
    "companyName": "Origin Company",
    "address": "45 South Street",
    "contactName": "John R",
    "contactPhone": "4356784555"
  },
  "destinationContainerData": {
    "companyName": "Destination Company",
    "address": "38 North Street",
    "contactName": "Jane D",
    "contactPhone": "3456784556"
  }
}