{
  "customerBK": "",
  "orderBK": "",
  "insuredAmount": 0,
  "cancelledByUsername": "SmokeTestTMS",
  "sendCancellationMail": true,
  "applicationType": 0,
  "cancelationReason": "Order Canceled by the Customer",
  "modeType": 3,
  "truckLoadNoteDetails": {
    "userName": "SmokeTestTMS",
    "text": "Order Canceled by the Customer",
    "noteTypeID": 0,
    "createdDate": "2021-01-10"
  }
}