{
  "carriers": [
    {
      "carrierName": "BLACK & WHITE TRUCK LLC",
      "trailerNo": "",
      "truckNo": "",
      "mcNo": "015544",
      "erpCode": "BK526",
      "dotNumber": "2983704",
      "legalName": "BLACK & WHITE TRUCK  LLC",
      "cityStateZip": "DEER PARK, TX 77536",
      "dispatchers": [
        {
          "dispatcherName": "ASYS",
          "dispatcherPhone": "(786) 307-8326",
          "dispatcherEmail": "dcvalidation@globaltranz.com",
          "dispatcherFax": ""
        }
      ],
      "drivers": [
        {
          "driverName": "Banilo",
          "driverPhone": "(305) 790-4249"
        }
      ]
    },
    {
      "carrierName": "ALL AMERICAN",
      "dispatchers": [
        {
          "dispatcherName": "Alex",
          "dispatcherPhone": "(725) 201-9122",
          "dispatcherEmail": "dcvalidation@globaltranz.com",
          "dispatcherFax": ""
        },
        {
          "dispatcherName": "James Wagne",
          "dispatcherPhone": "(702) 610-9198",
          "dispatcherEmail": "dcvalidation@globaltranz.com",
          "dispatcherFax": "7024460336"
        }
      ],
      "drivers": [
        {
          "driverName": "ED",
          "driverPhone": "(702) 204-5215"
        },
        {
          "driverName": "Jim",
          "driverPhone": "(702) 610-9198"
        },
        {
          "driverName": "James",
          "driverPhone": "(702) 610-9198"
        }
      ]
    },
    {
      "carrierName": "ABT",
      "trailerNo": "1234",
      "truckNo": "",
      "mcNo": "996523",
      "erpCode": "BJ423",
      "dotNumber": "2944671",
      "dispatchers": [
        {
          "dispatcherName": "eykmlgxwvq",
          "dispatcherPhone": "(408) 097-2390",
          "dispatcherEmail": "ntjohyusze@mail.com"
        }
      ],
      "drivers": [
        {
          "driverName": "",
          "driverPhone": "",
          "driverEmail": ""
        }
      ]
    },
    {
      "carrierName": "CENTRAL ARIZONA FREIGHT, LLC"
    },
    {
      "carrierName": "AMAYA TRUCKING"
    },
    {
      "carrierName": "DELIVERY ON DEMAND"
    }
  ]
}